diseasystore: quick start guide
…
ds$available_observables
#> [1] "n_population"    "n_hospital"      "n_deaths"        "n_positive"     
#> [5] "n_icu"           "n_ventilator"    "min_temperature" "max_temperature"

ds$available_stratifications
#> [1] "age_group"    "country_id"   "country"      "region_id"    "region"      
#> [6] "subregion_id" "subregion"

Lets start with an simple example where we request no stratification
(NULL):

ds$key_join_features(observable = "n_hospital",
                     stratification = NULL)
#> # A tibble: 15 × 2
#>   date       n_hospital
#>   <date>          <dbl>
#> 1 2020-03-01          3
#> 2 2020-03-02          6
#> 3 2020-03-03          5
#> 4 2020-03-04         12
#> 5 2020-03-05          8
#> # ℹ 10 more rows

This gives us the same feature information as
ds$get_feature("n_hospital") but simplified to give the
observable per day (in this case, the number of people
hospitalised).

To specify a level of stratification, we need to supply
a list of quosures (see
help("topic-quosure", package = "rlang")).

ds$key_join_features(observable = "n_hospital",
                     stratification = rlang::quos(country_id))
#> # A tibble: 15 × 3
#>   date       country_id n_hospital
#>   <date>     <chr>           <dbl>
#> 1 2020-03-01 AR                  3
#> 2 2020-03-02 AR                  6
#> 3 2020-03-03 AR                  5
#> 4 2020-03-04 AR                 12
#> 5 2020-03-05 AR                  8
#> # ℹ 10 more rows

The stratification argument is very flexible, so we can
supply any valid R expression:

ds$key_join_features(observable = "n_hospital",
                     stratification = rlang::quos(country_id,
                                                  old = age_group == "90+"))
#> # A tibble: 30 × 4
#>   date       country_id old   n_hospital
#>   <date>     <chr>      <lgl>      <dbl>
#> 1 2020-03-15 AR         TRUE          70
#> 2 2020-03-01 AR         TRUE           3
#> 3 2020-03-02 AR         TRUE           6
#> 4 2020-03-03 AR         TRUE           5
#> 5 2020-03-04 AR         TRUE          12
#> # ℹ 25 more rows
…
